^C:\USERS\SAYON\SOURCE\REPOS\CONSOLE\CONSOLE\X64\RELEASE\BUTTON.OBJ|C:\USERS\SAYON\SOURCE\REPOS\CONSOLE\CONSOLE\X64\RELEASE\CSTRING.OBJ|C:\USERS\SAYON\SOURCE\REPOS\CONSOLE\CONSOLE\X64\RELEASE\MAIN.OBJ|C:\USERS\SAYON\SOURCE\REPOS\CONSOLE\CONSOLE\X64\RELEASE\STRING.OBJ|C:\USERS\SAYON\SOURCE\REPOS\CONSOLE\CONSOLE\X64\RELEASE\WINDOW.OBJ|C:\USERS\SAYON\SOURCE\REPOS\CONSOLE\CONSOLE\X64\RELEASE\WNDMANAGER.OBJ
C:\USERS\SAYON\SOURCE\REPOS\CONSOLE\X64\RELEASE\CONSOLE.EXE
C:\USERS\SAYON\SOURCE\REPOS\CONSOLE\X64\RELEASE\CONSOLE.PDB
